\relax 
\bibstyle{biblatex}
\bibdata{Bib-blx,Bib}
\citation{biblatex-control}
\citation{*}
\@writefile{toc}{\defcounter {refsection}{0}\relax }\@writefile{toc}{\contentsline {section}{\numberline {11}Bibliography}{2}}
\@writefile{toc}{\defcounter {refsection}{0}\relax }\@writefile{toc}{\contentsline {subsection}{\numberline {11.1}Tools}{2}}
\@writefile{toc}{\defcounter {refsection}{0}\relax }\@writefile{toc}{\contentsline {subsection}{\numberline {11.2}Reading Materials}{2}}
