\relax 
\providecommand\hyper@newdestlabel[2]{}
\bibstyle{biblatex}
\bibdata{AI_CW1-blx,References/Ref}
\citation{biblatex-control}
\providecommand\HyperFirstAtBeginDocument{\AtBeginDocument}
\HyperFirstAtBeginDocument{\ifx\hyper@anchor\@undefined
\global\let\oldcontentsline\contentsline
\gdef\contentsline#1#2#3#4{\oldcontentsline{#1}{#2}{#3}}
\global\let\oldnewlabel\newlabel
\gdef\newlabel#1#2{\newlabelxx{#1}#2}
\gdef\newlabelxx#1#2#3#4#5#6{\oldnewlabel{#1}{{#2}{#3}}}
\AtEndDocument{\ifx\hyper@anchor\@undefined
\let\contentsline\oldcontentsline
\let\newlabel\oldnewlabel
\fi}
\fi}
\global\let\hyper@last\relax 
\gdef\HyperFirstAtBeginDocument#1{#1}
\providecommand\HyField@AuxAddToFields[1]{}
\providecommand\HyField@AuxAddToCoFields[2]{}
\@writefile{toc}{\boolfalse {citerequest}\boolfalse {citetracker}\boolfalse {pagetracker}\boolfalse {backtracker}\relax }
\@writefile{lof}{\boolfalse {citerequest}\boolfalse {citetracker}\boolfalse {pagetracker}\boolfalse {backtracker}\relax }
\@writefile{lot}{\boolfalse {citerequest}\boolfalse {citetracker}\boolfalse {pagetracker}\boolfalse {backtracker}\relax }
\@writefile{toc}{\defcounter {refsection}{0}\relax }\@writefile{toc}{\contentsline {section}{\numberline {1}Acronyms}{2}{section.1}}
\@writefile{lot}{\defcounter {refsection}{0}\relax }\@writefile{lot}{\contentsline {table}{\numberline {1}{\ignorespaces Acronyms used in this document}}{2}{table.1}}
\newlabel{table:Acronyms}{{1}{2}{Acronyms used in this document}{table.1}{}}
\citation{1_russell_norvig_2011}
\citation{1_russell_norvig_2011}
\citation{1_russell_norvig_2011}
\@writefile{toc}{\defcounter {refsection}{0}\relax }\@writefile{toc}{\contentsline {section}{\numberline {2}Solve First Training Maze}{3}{section.2}}
\newlabel{sec:Solve First Training Maze}{{2}{3}{Solve First Training Maze}{section.2}{}}
\@writefile{lot}{\defcounter {refsection}{0}\relax }\@writefile{lot}{\contentsline {table}{\numberline {2}{\ignorespaces The results for first maze}}{3}{table.2}}
\newlabel{table:Solve First Training Maze Table}{{2}{3}{The results for first maze}{table.2}{}}
\@writefile{toc}{\defcounter {refsection}{0}\relax }\@writefile{toc}{\contentsline {section}{\numberline {3}Describe Algorithm(s) Used}{3}{section.3}}
\newlabel{sec:Describe Algorithms}{{3}{3}{Describe Algorithm(s) Used}{section.3}{}}
\abx@aux@page{1}{3}
\@writefile{toc}{\defcounter {refsection}{0}\relax }\@writefile{toc}{\contentsline {subsection}{\numberline {3.1}Depth-First Search(DFS)}{3}{subsection.3.1}}
\newlabel{subsec:DFS}{{3.1}{3}{Depth-First Search(DFS)}{subsection.3.1}{}}
\abx@aux@page{2}{3}
\@writefile{toc}{\defcounter {refsection}{0}\relax }\@writefile{toc}{\contentsline {subsubsection}{\numberline {3.1.1}DFS Multiple solution modification}{3}{subsubsection.3.1.1}}
\newlabel{subsubsec:DFS_Multi}{{3.1.1}{3}{DFS Multiple solution modification}{subsubsection.3.1.1}{}}
\@writefile{toc}{\defcounter {refsection}{0}\relax }\@writefile{toc}{\contentsline {subsection}{\numberline {3.2}Breadth-First Search(BFS)}{3}{subsection.3.2}}
\newlabel{subsec:BFS}{{3.2}{3}{Breadth-First Search(BFS)}{subsection.3.2}{}}
\abx@aux@page{3}{3}
\@writefile{toc}{\defcounter {refsection}{0}\relax }\@writefile{toc}{\contentsline {section}{\numberline {4}Quality of Code}{5}{section.4}}
\newlabel{sec:Quality of Code}{{4}{5}{Quality of Code}{section.4}{}}
\@writefile{lof}{\defcounter {refsection}{0}\relax }\@writefile{lof}{\contentsline {figure}{\numberline {1}{\ignorespaces Demonstration of the GUI}}{5}{figure.1}}
\newlabel{figue:Demonstration of the GUI}{{1}{5}{Demonstration of the GUI}{figure.1}{}}
\@writefile{lof}{\defcounter {refsection}{0}\relax }\@writefile{lof}{\contentsline {figure}{\numberline {2}{\ignorespaces Project structure}}{5}{figure.2}}
\newlabel{figue:Project structure}{{2}{5}{Project structure}{figure.2}{}}
\@writefile{lof}{\defcounter {refsection}{0}\relax }\@writefile{lof}{\contentsline {figure}{\numberline {3}{\ignorespaces Java Docs and in-line comments}}{6}{figure.3}}
\newlabel{figue:Java Docs}{{3}{6}{Java Docs and in-line comments}{figure.3}{}}
\@writefile{lof}{\defcounter {refsection}{0}\relax }\@writefile{lof}{\contentsline {figure}{\numberline {4}{\ignorespaces Result outputs}}{6}{figure.4}}
\newlabel{figue:Output}{{4}{6}{Result outputs}{figure.4}{}}
\@writefile{toc}{\defcounter {refsection}{0}\relax }\@writefile{toc}{\contentsline {section}{\numberline {5}Solve All Three Training Mazes (in both modes)}{7}{section.5}}
\newlabel{sec:Solve_All}{{5}{7}{Solve All Three Training Mazes (in both modes)}{section.5}{}}
\@writefile{lot}{\defcounter {refsection}{0}\relax }\@writefile{lot}{\contentsline {table}{\numberline {3}{\ignorespaces The results obtained when solving all the training mazes}}{7}{table.3}}
\newlabel{table:Solve_All Table}{{3}{7}{The results obtained when solving all the training mazes}{table.3}{}}
\citation{Pei2006}
\citation{Machanavajjhala2008}
\citation{Tan2009}
\@writefile{toc}{\defcounter {refsection}{0}\relax }\@writefile{toc}{\contentsline {section}{\numberline {6}Solve All Tests}{8}{section.6}}
\newlabel{sec:Solve_All Tests}{{6}{8}{Solve All Tests}{section.6}{}}
\@writefile{toc}{\defcounter {refsection}{0}\relax }\@writefile{toc}{\contentsline {subsection}{\numberline {6.1}Recommended algorithm}{8}{subsection.6.1}}
\newlabel{subsec:Recommended}{{6.1}{8}{Recommended algorithm}{subsection.6.1}{}}
\@writefile{toc}{\defcounter {refsection}{0}\relax }\@writefile{toc}{\contentsline {subsection}{\numberline {6.2}Result Analysis}{8}{subsection.6.2}}
\newlabel{subsec:Tests_Analysis}{{6.2}{8}{Result Analysis}{subsection.6.2}{}}
\abx@aux@page{4}{8}
\abx@aux@page{5}{8}
\abx@aux@page{6}{8}
\@writefile{toc}{\defcounter {refsection}{0}\relax }\@writefile{toc}{\contentsline {subsection}{\numberline {6.3}Test Results Single solution}{9}{subsection.6.3}}
\newlabel{subsec:Tests_Results}{{6.3}{9}{Test Results Single solution}{subsection.6.3}{}}
\@writefile{lot}{\defcounter {refsection}{0}\relax }\@writefile{lot}{\contentsline {table}{\numberline {4}{\ignorespaces The results obtained when solving all the test mazes in single solution mode}}{9}{table.4}}
\@writefile{toc}{\defcounter {refsection}{0}\relax }\@writefile{toc}{\contentsline {subsection}{\numberline {6.4}Test Results Multiple solution}{10}{subsection.6.4}}
\newlabel{subsec:Tests_Results_multi}{{6.4}{10}{Test Results Multiple solution}{subsection.6.4}{}}
\@writefile{lot}{\defcounter {refsection}{0}\relax }\@writefile{lot}{\contentsline {table}{\numberline {5}{\ignorespaces The results obtained when solving all the test mazes in multiple solution mode}}{10}{table.5}}
\@writefile{toc}{\defcounter {refsection}{0}\relax }\@writefile{toc}{\contentsline {section}{\numberline {7}Repository}{11}{section.7}}
\newlabel{sec:Repository}{{7}{11}{Repository}{section.7}{}}
\@writefile{toc}{\defcounter {refsection}{0}\relax }\@writefile{toc}{\contentsline {section}{\numberline {8}References}{12}{section.8}}
\newlabel{sec:References}{{8}{12}{References}{section.8}{}}
\abx@aux@page{7}{12}
\abx@aux@page{8}{12}
\abx@aux@page{9}{12}
\abx@aux@page{10}{12}
\@writefile{toc}{\defcounter {refsection}{0}\relax }\@writefile{toc}{\contentsline {section}{\numberline {9}Appendix}{13}{section.9}}
\newlabel{sec:appendix}{{9}{13}{Appendix}{section.9}{}}
\@writefile{toc}{\defcounter {refsection}{0}\relax }\@writefile{toc}{\contentsline {subsection}{\numberline {9.1}Some Screen Shot Of The Training Results}{13}{subsection.9.1}}
\newlabel{subsec:Screen Shot Of Results}{{9.1}{13}{Some Screen Shot Of The Training Results}{subsection.9.1}{}}
\@writefile{lof}{\defcounter {refsection}{0}\relax }\@writefile{lof}{\contentsline {figure}{\numberline {5}{\ignorespaces DFS\_Multi Training Maze 1 Result}}{13}{figure.5}}
\newlabel{figue:1}{{5}{13}{DFS\_Multi Training Maze 1 Result}{figure.5}{}}
\@writefile{lof}{\defcounter {refsection}{0}\relax }\@writefile{lof}{\contentsline {figure}{\numberline {6}{\ignorespaces DFS\_Multi Training Maze 2 Result}}{13}{figure.6}}
\newlabel{figue:2}{{6}{13}{DFS\_Multi Training Maze 2 Result}{figure.6}{}}
\@writefile{lof}{\defcounter {refsection}{0}\relax }\@writefile{lof}{\contentsline {figure}{\numberline {7}{\ignorespaces DFS\_Multi Training Maze 3 Result}}{13}{figure.7}}
\newlabel{figue:4}{{7}{13}{DFS\_Multi Training Maze 3 Result}{figure.7}{}}
\@writefile{lof}{\defcounter {refsection}{0}\relax }\@writefile{lof}{\contentsline {figure}{\numberline {8}{\ignorespaces BFS Training Maze 1 Result}}{13}{figure.8}}
\newlabel{figue:5}{{8}{13}{BFS Training Maze 1 Result}{figure.8}{}}
\@writefile{lof}{\defcounter {refsection}{0}\relax }\@writefile{lof}{\contentsline {figure}{\numberline {9}{\ignorespaces BFS Training Maze 2 Result}}{14}{figure.9}}
\newlabel{figue:6}{{9}{14}{BFS Training Maze 2 Result}{figure.9}{}}
\@writefile{lof}{\defcounter {refsection}{0}\relax }\@writefile{lof}{\contentsline {figure}{\numberline {10}{\ignorespaces BFS Training Maze 3 Result}}{14}{figure.10}}
\newlabel{figue:7}{{10}{14}{BFS Training Maze 3 Result}{figure.10}{}}
\@writefile{toc}{\defcounter {refsection}{0}\relax }\@writefile{toc}{\contentsline {subsection}{\numberline {9.2}Some Screen Shot Of The Testing Results}{15}{subsection.9.2}}
\newlabel{subsec:Results_testing}{{9.2}{15}{Some Screen Shot Of The Testing Results}{subsection.9.2}{}}
\@writefile{lof}{\defcounter {refsection}{0}\relax }\@writefile{lof}{\contentsline {figure}{\numberline {11}{\ignorespaces DFS\_Original Testing Maze 1 Result}}{15}{figure.11}}
\@writefile{lof}{\defcounter {refsection}{0}\relax }\@writefile{lof}{\contentsline {figure}{\numberline {12}{\ignorespaces DFS\_Original Testing Maze 2 Result}}{15}{figure.12}}
\@writefile{lof}{\defcounter {refsection}{0}\relax }\@writefile{lof}{\contentsline {figure}{\numberline {13}{\ignorespaces DFS\_Original Testing Maze 3 Result}}{15}{figure.13}}
\@writefile{lof}{\defcounter {refsection}{0}\relax }\@writefile{lof}{\contentsline {figure}{\numberline {14}{\ignorespaces DFS\_Original Testing Maze 4 Result}}{15}{figure.14}}
\@writefile{lof}{\defcounter {refsection}{0}\relax }\@writefile{lof}{\contentsline {figure}{\numberline {15}{\ignorespaces DFS\_Multi Testing Maze 1 Result}}{15}{figure.15}}
\@writefile{lof}{\defcounter {refsection}{0}\relax }\@writefile{lof}{\contentsline {figure}{\numberline {16}{\ignorespaces DFS\_Multi Testing Maze 2 Result}}{16}{figure.16}}
\@writefile{lof}{\defcounter {refsection}{0}\relax }\@writefile{lof}{\contentsline {figure}{\numberline {17}{\ignorespaces DFS\_Multi Testing Maze 3 Result}}{16}{figure.17}}
\@writefile{lof}{\defcounter {refsection}{0}\relax }\@writefile{lof}{\contentsline {figure}{\numberline {18}{\ignorespaces DFS\_Multi Testing Maze 4 Result}}{16}{figure.18}}
\@writefile{lof}{\defcounter {refsection}{0}\relax }\@writefile{lof}{\contentsline {figure}{\numberline {19}{\ignorespaces BFS Testing Maze 1 Result}}{16}{figure.19}}
\@writefile{lof}{\defcounter {refsection}{0}\relax }\@writefile{lof}{\contentsline {figure}{\numberline {20}{\ignorespaces BFS Testing Maze 2 Result}}{16}{figure.20}}
\@writefile{lof}{\defcounter {refsection}{0}\relax }\@writefile{lof}{\contentsline {figure}{\numberline {21}{\ignorespaces BFS Testing Maze 3 Result}}{17}{figure.21}}
\@writefile{lof}{\defcounter {refsection}{0}\relax }\@writefile{lof}{\contentsline {figure}{\numberline {22}{\ignorespaces BFS Testing Maze 4 Result}}{17}{figure.22}}
\@writefile{lof}{\defcounter {refsection}{0}\relax }\@writefile{lof}{\contentsline {figure}{\numberline {23}{\ignorespaces DFS\_Multi Testing Maze 1 Result}}{17}{figure.23}}
\@writefile{lof}{\defcounter {refsection}{0}\relax }\@writefile{lof}{\contentsline {figure}{\numberline {24}{\ignorespaces DFS\_Multi Testing Maze 3 Result}}{17}{figure.24}}
\@writefile{lof}{\defcounter {refsection}{0}\relax }\@writefile{lof}{\contentsline {figure}{\numberline {25}{\ignorespaces DFS\_Multi Testing Maze 4 Result}}{17}{figure.25}}
\@writefile{lof}{\defcounter {refsection}{0}\relax }\@writefile{lof}{\contentsline {figure}{\numberline {26}{\ignorespaces BFS Testing Maze 1 Result}}{18}{figure.26}}
\@writefile{lof}{\defcounter {refsection}{0}\relax }\@writefile{lof}{\contentsline {figure}{\numberline {27}{\ignorespaces BFS Testing Maze 3 Result}}{18}{figure.27}}
\@writefile{lof}{\defcounter {refsection}{0}\relax }\@writefile{lof}{\contentsline {figure}{\numberline {28}{\ignorespaces BFS Testing Maze 4 Result}}{18}{figure.28}}
